FoodDescription,NutrientID,NutrientUnit,NutrientSymbol,FoodID,NutrientValue
Cheese souffle,203,g,PROT,2,9.54
"Chicken, broiler, thigh, meat, stewed",203,g,PROT,855,25
"Pummelo, raw",203,g,PROT,1674,0.76
Cheese souffle,204,g,FAT,2,15.7
"Chicken, broiler, thigh, meat, stewed",204,g,FAT,855,9.79
"Pummelo, raw",204,g,FAT,1674,0.04
Cheese souffle,205,g,CARB,2,5.91
"Chicken, broiler, thigh, meat, stewed",205,g,CARB,855,0
"Pummelo, raw",205,g,CARB,1674,9.62
Cheese souffle,208,kCal,KCAL,2,204
"Chicken, broiler, thigh, meat, stewed",208,kCal,KCAL,855,195
"Pummelo, raw",208,kCal,KCAL,1674,38
